object SubtractRational {
  def main(args:Array[String]):Unit={
    val x=new Rational(3,4)
    val y=new Rational(5,8)
    val z=new Rational(2,7)
    val r1=x.sub(y)
    val r2=r1.sub(z)
    println("x=" + x)
    println("y=" + y)
    println("z=" + z)
    println("Result of x-y-z="+r2)
  }

  class Rational(n:Int,d:Int){
    require(d > 0, "d must be grater than 0.")
    def numer = n/gcd(Math.abs(n),d);
    def denom = d/gcd(Math.abs(n),d);
    private def gcd(a:Int,b:Int):Int= if(b==0) a else gcd(b,a%b)
    def sub(r:Rational)=new Rational(this.numer*r.denom-this.denom*r.numer,this.denom*r.denom)
    def neg= new Rational(-this.numer,this.denom);
    override def toString=numer+"/"+denom
  }
}
